{
  "expansions": {
    "aiw": "Base",
    "zr": "Zenith Remnant",
    "cn": "Children of Neinzul",
    "ls": "Light of the Spire",
    "as": "Ancient Shadows",
    "vm": "Vengeance of the Machine",
    "dw": "Destroyer of Worlds"
  },
  "difficulty_sets": {
    "e": {
      "name": "Easier",
      "aliases": [
        "easier"
      ],
      "include": {
        "difficulty": [
          "e"
        ]
      }
    },
    "m": {
      "name": "moderate",
      "aliases": [
        "moderate"
      ],
      "include": {
        "difficulty": [
          "m"
        ]
      }
    },
    "h": {
      "name": "Harder",
      "aliases": [
        "harder"
      ],
      "include": {
        "difficulty": [
          "h",
          "t"
        ]
      }
    },
    "t": {
      "name": "Red/Technologist",
      "aliases": [
        "red",
        "technologist",
        "tech",
        "r"
      ]
    },
    "em": {
      "name": "Moderate/Easier",
      "aliases": [
        "moderate-easier",
        "mod-easy",
        "me"
      ],
      "include": {
        "difficulty": [
          "e",
          "m"
        ]
      }
    },
    "a": {
      "name": "All",
      "aliases": [
        "all"
      ],
      "include": {
        "difficulty": [
          "e",
          "m",
          "h",
          "t"
        ]
      }
    },
    "nt": {
      "name": "All Non-Technologist",
      "aliases": [
        "non-tech",
        "notech",
        "luddite"
      ],
      "include": {
        "difficulty": [
          "e",
          "m",
          "h"
        ]
      }
    }
  },
  "difficulties": {
    "e": "Easier",
    "m": "Moderate",
    "h": "Harder",
    "t": "Red/Technologist"
  },
  "types": {
    "bouncer": {
      "name": "Bouncer",
      "difficulty": "e",
      "expansion": "vm"
    },
    "chivalric": {
      "name": "Chivalric",
      "difficulty": "e",
      "expansion": "vm"
    },
    "cowardly": {
      "name": "Cowardly",
      "difficulty": "e",
      "expansion": "dw"
    },
    "homeworld": {
      "name": "Entrenched Homeworlder",
      "difficulty": "e",
      "expansion": "aiw"
    },
    "fort-baron": {
      "name": "Fortress Baron",
      "difficulty": "e",
      "expansion": "aiw"
    },
    "grav-drill": {
      "name": "Grav Driller",
      "difficulty": "e",
      "expansion": "zr"
    },
    "mines": {
      "name": "Mine Enthusiast",
      "difficulty": "e",
      "expansion": "aiw"
    },
    "n-viral": {
      "name": "Neinzul Viral Enthusiast",
      "difficulty": "e",
      "expansion": "cn"
    },
    "ninny": {
      "name": "Shield Ninny",
      "difficulty": "e",
      "expansion": "zr"
    },
    "hammer": {
      "name": "Sledge Hammer",
      "difficulty": "e",
      "expansion": "aiw"
    },
    "support": {
      "name": "Support Corps",
      "difficulty": "e",
      "expansion": "cn"
    },
    "tank": {
      "name": "The Tank",
      "difficulty": "e",
      "expansion": "aiw"
    },
    "trains": {
      "name": "Train Master",
      "difficulty": "e",
      "expansion": "aiw"
    },
    "turtle": {
      "name": "Turtle",
      "difficulty": "e",
      "expansion": "aiw"
    },
    "vanilla": {
      "name": "Vanilla",
      "difficulty": "e",
      "expansion": "ls"
    },
    "artill": {
      "name": "Artillerist",
      "difficulty": "m",
      "expansion": "vm"
    },
    "assassin": {
      "name": "Assassin",
      "difficulty": "m",
      "expansion": "aiw"
    },
    "backdoor": {
      "name": "Backdoor Hacker",
      "difficulty": "m",
      "expansion": "aiw"
    },
    "bully": {
      "name": "Bully",
      "difficulty": "m",
      "expansion": "aiw"
    },
    "camo": {
      "name": "Camouflager",
      "difficulty": "m",
      "expansion": "zr"
    },
    "ctr-spy": {
      "name": "Counter Spy",
      "difficulty": "m",
      "expansion": "aiw"
    },
    "exotic": {
      "name": "Exotic",
      "difficulty": "m",
      "expansion": "vm"
    },
    "experiment": {
      "name": "Experimentalist",
      "difficulty": "m",
      "expansion": "zr"
    },
    "parasite": {
      "name": "Feeding Parasite",
      "difficulty": "m",
      "expansion": "aiw"
    },
    "kite": {
      "name": "Kite Flier",
      "difficulty": "m",
      "expansion": "dw"
    },
    "bomber": {
      "name": "Mad Bomber",
      "difficulty": "m",
      "expansion": "aiw"
    },
    "n-cluster": {
      "name": "Neinzul Cluster-Bomber",
      "difficulty": "m",
      "expansion": "cn"
    },
    "youngster": {
      "name": "Neinzul Youngster",
      "difficulty": "m",
      "expansion": "cn"
    },
    "oneway": {
      "name": "One-Way Doormaster",
      "difficulty": "m",
      "expansion": "zr"
    },
    "peace": {
      "name": "Peacemaker",
      "difficulty": "m",
      "expansion": "zr"
    },
    "reservist": {
      "name": "Reservist",
      "difficulty": "m",
      "expansion": "vm"
    },
    "racer": {
      "name": "Speed Racer",
      "difficulty": "m",
      "expansion": "zr"
    },
    "spire": {
      "name": "Spireling",
      "difficulty": "m",
      "expansion": "ls"
    },
    "stealth": {
      "name": "Stealth Master",
      "difficulty": "m",
      "expansion": "aiw"
    },
    "tagteam": {
      "name": "Tag Teamer",
      "difficulty": "m",
      "expansion": "zr"
    },
    "teleturtle": {
      "name": "Teleporter Turtle",
      "difficulty": "m",
      "expansion": "aiw"
    },
    "thief": {
      "name": "Thief",
      "difficulty": "m",
      "expansion": "ls"
    },
    "vic-raider": {
      "name": "Vicious Raider",
      "difficulty": "m",
      "expansion": "aiw"
    },
    "zenith": {
      "name": "Zenith Descendant",
      "difficulty": "m",
      "expansion": "zr"
    },
    "alarmist": {
      "name": "Alarmist",
      "difficulty": "h",
      "expansion": "zr"
    },
    "attrition": {
      "name": "Attritioner",
      "difficulty": "h",
      "expansion": "aiw"
    },
    "everything": {
      "name": "Everything",
      "difficulty": "h",
      "expansion": "ls"
    },
    "ext-raider": {
      "name": "Extreme Raider",
      "difficulty": "h",
      "expansion": "ls"
    },
    "fort-king": {
      "name": "Fortress King",
      "difficulty": "h",
      "expansion": "as"
    },
    "golemite": {
      "name": "Golemite",
      "difficulty": "h",
      "expansion": "zr"
    },
    "mime": {
      "name": "Mime",
      "difficulty": "h",
      "expansion": "dw"
    },
    "n-nester": {
      "name": "Neinzul Nester",
      "difficulty": "h",
      "expansion": "cn"
    },
    "overreactive": {
      "name": "Overreactive",
      "difficulty": "h",
      "expansion": "dw"
    },
    "quadratic": {
      "name": "Quadratic",
      "difficulty": "h",
      "expansion": "dw"
    },
    "jammer": {
      "name": "Radar Jammer",
      "difficulty": "h",
      "expansion": "zr"
    },
    "retaliatory": {
      "name": "Retaliatory",
      "difficulty": "h",
      "expansion": "ls"
    },
    "scorch": {
      "name": "Scorched Earth",
      "difficulty": "h",
      "expansion": "aiw"
    },
    "shadow": {
      "name": "Shadow Master",
      "difficulty": "h",
      "expansion": "aiw"
    },
    "specops": {
      "name": "Special Forces Captain",
      "difficulty": "h",
      "expansion": "aiw"
    },
    "sp-hammer": {
      "name": "Spire Hammer",
      "difficulty": "h",
      "expansion": "ls"
    },
    "starfleet": {
      "name": "Starfleet Commander",
      "difficulty": "h",
      "expansion": "zr"
    },
    "starship": {
      "name": "Starship Fanatic",
      "difficulty": "h",
      "expansion": "dw"
    },
    "vanguard": {
      "name": "Vanguard",
      "difficulty": "h",
      "expansion": "dw"
    },
    "vengeful": {
      "name": "Vengeful",
      "difficulty": "h",
      "expansion": "vm"
    },
    "vorpal": {
      "name": "Vorpal",
      "difficulty": "h",
      "expansion": "vm"
    },
    "warp": {
      "name": "Warp Jumper",
      "difficulty": "h",
      "expansion": "cn"
    },
    "brutal": {
      "name": "Brutal",
      "difficulty": "t",
      "expansion": "dw"
    },
    "c-spire": {
      "name": "Crafty Spire",
      "difficulty": "t",
      "expansion": "ls"
    },
    "heroic": {
      "name": "Heroic",
      "difficulty": "t",
      "expansion": "as"
    },
    "r-engine": {
      "name": "Raid Engine",
      "difficulty": "t",
      "expansion": "zr"
    },
    "tech-homeworlder": {
      "name": "Technologist Homeworlder",
      "difficulty": "t",
      "expansion": "aiw"
    },
    "tech-parasite": {
      "name": "Technologist Parasite",
      "difficulty": "t",
      "expansion": "aiw"
    },
    "tech-raider": {
      "name": "Technologist Raider",
      "difficulty": "t",
      "expansion": "aiw"
    },
    "tech-sledge": {
      "name": "Technologist Sledge",
      "difficulty": "t",
      "expansion": "aiw"
    },
    "tech-turtle": {
      "name": "Technologist Turtle",
      "difficulty": "t",
      "expansion": "aiw"
    },
    "core": {
      "name": "The Core",
      "difficulty": "t",
      "expansion": "aiw"
    },
    "vic-exotic": {
      "name": "Vicious Exotic",
      "difficulty": "t",
      "expansion": "aiw"
    }
  }
}
